{
    "status": "success",
    "data": [
      {
        "id": "65baab8868f14b00644aee08",
        "name": {
          "en": " Isabelle N Miron, Conseillère municipale",
          "fr": " Isabelle N Miron, Conseillère municipale"
        },
        "description": {},
        "alternateName": {},
        "sameAs": []
      },
      {
        "id": "664f62d23d92390064201386",
        "name": {
          "en": " Mario Aubé - Conseiller du District de Masson-Angers ",
          "fr": " Mario Aubé - Conseiller du District de Masson-Angers "
        },
        "description": {},
        "alternateName": {},
        "sameAs": []
      },
      {
        "id": "6629f5540796c3006456eb0a",
        "name": {
          "en": "Alain Choquette",
          "fr": "Alain Choquette"
        },
        "description": {},
        "alternateName": {},
        "url": "https://alainchoquette.ca",
        "sameAs": [
          "http://kg.artsdata.ca/resource/K12-259"
        ]
      },
      {
        "id": "645b93db7db98f0065dc5bbf",
        "name": {
          "en": "Alex Roy",
          "fr": "Alex Roy"
        },
        "description": {},
        "alternateName": {},
        "url": "https://www.sixiemesens.ca/artiste/alex-roy/",
        "sameAs": [
          "http://kg.artsdata.ca/resource/K5-198",
          "http://kg.footlight.io/resource/09fd17c7-a410-4054-813d-f9652697ef9d"
        ]
      },
      {
        "id": "642d93bacf606a0064e5fc42",
        "name": {
          "en": "Alexandra Stréliski",
          "fr": "Alexandra Stréliski"
        },
        "description": {
          "en": "<p>Pianist and composer from Quebec</p>",
          "fr": "<p>Pianiste et compositrice du Québec</p>"
        },
        "alternateName": {},
        "url": "https://alexandrastreliski.com/",
        "sameAs": [
          "http://kg.artsdata.ca/resource/K12-273",
          "https://www.wikidata.org/wiki/Q56070803"
        ],
        "taxonomyMap": [
          {
            "id": "6467a0a5137a2200640d6abd",
            "name": {
              "en": "Member organization - Individual",
              "fr": "Membre d'organisme - Individuel"
            }
          }
        ]
      },
      {
        "id": "6482200a371b8f006491177b",
        "name": {
          "en": "Alexandre Da Costa",
          "fr": "Alexandre Da Costa"
        },
        "description": {},
        "alternateName": {},
        "url": "http://www.alexandredacosta.com/",
        "sameAs": [
          "http://kg.artsdata.ca/resource/K12-430"
        ],
        "taxonomyMap": [
          {
            "id": "6467a0a5137a2200640d6abd",
            "name": {
              "en": "Member organization - Individual",
              "fr": "Membre d'organisme - Individuel"
            }
          }
        ]
      },
      {
        "id": "6629f51e0796c3006456e74b",
        "name": {
          "en": "Alexandre Poulin",
          "fr": "Alexandre Poulin"
        },
        "description": {},
        "alternateName": {},
        "sameAs": [
          "http://kg.artsdata.ca/resource/K13-9",
          "http://capacitor.culturecreates.com/4fa2dc0e-c965-4914-b4f1-702fd2acfd56"
        ]
      },
      {
        "id": "666a8c4184e933006493e936",
        "name": {
          "en": "Alfa Rococo",
          "fr": "Alfa Rococo"
        },
        "description": {},
        "alternateName": {},
        "sameAs": [
          "http://kg.artsdata.ca/resource/K13-12",
          "http://capacitor.culturecreates.com/b2e1d264-780a-49b2-aed4-2a19ced50d51"
        ]
      },
      {
        "id": "65bb454068f14b00644b5437",
        "name": {
          "en": "André Laprise",
          "fr": "André Laprise"
        },
        "description": {},
        "alternateName": {},
        "sameAs": [
          "http://kg.artsdata.ca/resource/K2-4210",
          "http://www.wikidata.org/entity/Q112602554"
        ]
      },
      {
        "id": "6495c46d95ffd60064aabe5a",
        "name": {
          "en": "Andréanne A. Malette",
          "fr": "Andréanne A. Malette"
        },
        "description": {},
        "alternateName": {},
        "sameAs": [
          "http://kg.artsdata.ca/resource/K13-16",
          "http://capacitor.culturecreates.com/61eea33b-2c97-444b-9957-ae99588f2528"
        ]
      }
    ],
    "meta": {
      "currentPage": 1,
      "totalCount": 221,
      "limit": 10,
      "pageCount": 23
    }
  }